Handling network data in R
…
Now nodes are labeled with the character name rather than a number as before. Depending on your resolution, you might be able to see some groups better than others, but ideally you should see the main characters making a dense community in the center. One character, “gold five”, has degree zero, as it talks in the movie but not clearly in a scene with another character.

Handling network data

The data structure for networks in tidygraph contains various components that you might want to use in your analyses. Sometimes you want to do things with nodes, other times with edges. Tidygraph contains the function activate() for that, the result cab be converted to a tibble dataframe so you can analyze that data in particular:

starwars %>% activate(nodes) %>% as_tibble()

## # A tibble: 22 x 3
##    name        side     id
##    <fct>       <fct> <int>
##  1 R2-D2       good      1
##  2 CHEWBACCA   good      2
##  3 C-3PO       good      3
##  4 LUKE        good      4
##  5 DARTH VADER evil      5
##  6 CAMIE       good      6
##  7 BIGGS       good      7
##  8 LEIA        good      8
##  9 BERU        good      9
## 10 OWEN        good     10
## # … with 12 more rows

starwars %>% activate(edges) %>% as_tibble()

## # A tibble: 60 x 3
##     from    to weight
##    <int> <int>  <int>
##  1     1     2      3
##  2     1     3     17
##  3     1     9      1
##  4     1     4     14
##  5     1    10      1
##  6     1    11      4
##  7     1     8      5
##  8     1     7      1
##  9     1    14      6
## 10     2    11      4
## # … with 50 more rows
…
